[{
		"@id" : "http://rageproject.eu/taxonomy/game-platfrm#game-platfrm",
		"@type" : ["http://www.w3.org/2004/02/skos/core#ConceptScheme"],
		"http://purl.org/dc/terms/title" : [{
				"@language" : "en",
				"@value" : "Game platform"
			}
		],
		"http://www.w3.org/2004/02/skos/core#hasTopConcept" : [{
				"@id" : "http://rageproject.eu/taxonomy/game-platfrm#unity"
			}, {
				"@id" : "http://rageproject.eu/taxonomy/game-platfrm#xamarin"
			}, {
				"@id" : "http://rageproject.eu/taxonomy/game-platfrm#other"
			}
		],
		"http://www.w3.org/2004/02/skos/core#narrower" : [{
				"@id" : "http://rageproject.eu/taxonomy/game-platfrm#unity"
			}, {
				"@id" : "http://rageproject.eu/taxonomy/game-platfrm#xamarin"
			}, {
				"@id" : "http://rageproject.eu/taxonomy/game-platfrm#other"
			}
		],
		"http://www.w3.org/2004/02/skos/core#prefLabel" : [{
				"@language" : "en",
				"@value" : "Game platform"
			}
		]
	}, {
		"@id" : "http://rageproject.eu/taxonomy/game-platfrm#unity",
		"@type" : ["http://www.w3.org/2004/02/skos/core#Concept"],
		"http://www.w3.org/2004/02/skos/core#inScheme" : [{
				"@id" : "http://rageproject.eu/taxonomy/game-platfrm#game-platfrm"
			}
		],
		"http://www.w3.org/2004/02/skos/core#prefLabel" : [{
				"@language" : "en",
				"@value" : "Unity"
			}
		],
		"http://www.w3.org/2004/02/skos/core#topConceptOf" : [{
				"@id" : "http://rageproject.eu/taxonomy/game-platfrm#game-platfrm"
			}
		]
	}, {
		"@id" : "http://rageproject.eu/taxonomy/game-platfrm#xamarin",
		"@type" : ["http://www.w3.org/2004/02/skos/core#Concept"],
		"http://www.w3.org/2004/02/skos/core#inScheme" : [{
				"@id" : "http://rageproject.eu/taxonomy/game-platfrm#game-platfrm"
			}
		],
		"http://www.w3.org/2004/02/skos/core#prefLabel" : [{
				"@language" : "en",
				"@value" : "Xamarin"
			}
		],
		"http://www.w3.org/2004/02/skos/core#topConceptOf" : [{
				"@id" : "http://rageproject.eu/taxonomy/game-platfrm#game-platfrm"
			}
		]
	}, {
		"@id" : "http://rageproject.eu/taxonomy/game-platfrm#other",
		"@type" : ["http://www.w3.org/2004/02/skos/core#Concept"],
		"http://www.w3.org/2004/02/skos/core#inScheme" : [{
				"@id" : "http://rageproject.eu/taxonomy/game-platfrm#game-platfrm"
			}
		],
		"http://www.w3.org/2004/02/skos/core#prefLabel" : [{
				"@language" : "en",
				"@value" : "Other"
			}
		],
		"http://www.w3.org/2004/02/skos/core#topConceptOf" : [{
				"@id" : "http://rageproject.eu/taxonomy/game-platfrm#game-platfrm"
			}
		]
	}
]
